<?xml version="1.0"?>
<svg xmlns="http://www.w3.org/2000/svg" xmlns:xlink="http://www.w3.org/1999/xlink" version="1.1" id="Capa_1" x="0px" y="0px" viewBox="0 0 490 490" style="enable-background:new 0 0 490 490;" xml:space="preserve" width="512px" height="512px" class=""><g><g>
	<path d="M490,0H0v356.078h229.687v103.297h-78.402V490h187.429v-30.625h-78.402V356.078H490V0z M459.375,325.453H30.625V30.625   h428.75V325.453z" data-original="#000000" class="active-path" data-old_color="#000000" fill="#FF0000"/>
	<path d="M195.982,193.634c-24.195,0-43.874,19.679-43.874,43.859c0,24.195,19.679,43.874,43.874,43.874   c24.18,0,43.859-19.679,43.859-43.874c0-1.127-0.057-2.241-0.141-3.347l43.522-20.419c7.449,5.831,16.816,9.32,26.99,9.32   c24.18,0,43.859-19.679,43.859-43.874c0-24.18-19.679-43.859-43.859-43.859c-11.017,0-21.089,4.089-28.802,10.816l-41.939-19.686   c0.234-1.832,0.369-3.696,0.369-5.591c0-24.195-19.679-43.874-43.859-43.874c-24.195,0-43.874,19.679-43.874,43.874   s19.679,43.874,43.874,43.874c11.2,0,21.43-4.228,29.19-11.165l41.599,19.526c-0.278,1.99-0.432,4.019-0.432,6.084   c0,2.829,0.279,5.593,0.793,8.275l-40.3,18.907C218.901,198.498,207.999,193.634,195.982,193.634z M195.982,250.742   c-7.312,0-13.249-5.937-13.249-13.249c0-7.297,5.937-13.234,13.249-13.234c7.297,0,13.234,5.937,13.234,13.234   C209.216,244.806,203.279,250.742,195.982,250.742z M310.213,165.94c7.297,0,13.234,5.937,13.234,13.234   c0,7.312-5.937,13.249-13.234,13.249c-7.312,0-13.249-5.936-13.249-13.249C296.964,171.877,302.9,165.94,310.213,165.94z    M195.982,134.104c-7.312,0-13.249-5.937-13.249-13.249c0-7.312,5.937-13.249,13.249-13.249c7.297,0,13.234,5.937,13.234,13.249   C209.216,128.167,203.279,134.104,195.982,134.104z" data-original="#000000" class="active-path" data-old_color="#000000" fill="#FF0000"/>
</g></g> </svg>
